[
    {
        "code": "VOUCHER", 
        "name": "Cabify Voucher",
        "price": 5.00
    },
    {
        "code": "TSHIRT",
        "name": "Cabify T-Shirt",
        "price": 20.0
    },
    {
        "code": "MUG",
        "name": "Cabify Coffee Mug",
        "price": 7.50
    }    
]