[
    {
        "name": "halfPrice",
        "opts": {
            "code": "VOUCHER"
        }
    },
    {
        "name": "changePrice",
        "opts": {
            "code": "TSHIRT",
            "units": 3,
            "newPrice": 19.0
        }
    }
]